proofcomb/engine_0/trace_induct.vcd
$version Generated by Yosys-SMTBMC $end
$timescale 1ns $end
$var integer 32 t smt_step $end
$var event 1 ! smt_clock $end
$scope module proofcombgood $end
$scope module _witness_ $end
$var wire 1 n0 anyinit_auto_clk2fflogic_cc_95_sample_data_71 $end
$var wire 1 n1 anyseq_auto_setundef_cc_533_execute_102 $end
$var wire 1 n2 anyseq_auto_setundef_cc_533_execute_104 $end
$var wire 1 n3 anyseq_auto_setundef_cc_533_execute_106 $end
$var wire 1 n4 anyseq_auto_setundef_cc_533_execute_108 $end
$upscope $end
$var wire 4 n5 a_num1 $end
$var wire 4 n6 a_num2 $end
$scope module bug_eval $end
$var wire 4 n7 a_num1 $end
$var wire 4 n8 a_num2 $end
$var wire 5 n9 a_out $end
$var wire 4 n10 b_num1 $end
$var wire 4 n11 b_num2 $end
$var wire 5 n12 b_out $end
$scope module badbranch_instance $end
$var wire 4 n13 num1 $end
$var wire 4 n14 num2 $end
$var wire 5 n15 out $end
$upscope $end
$var wire 1 n16 clk $end
$scope module eval_top_1 $end
$var wire 3 n17 w $end
$var wire 1 n18 y $end
$upscope $end
$scope module eval_topmsb_1 $end
$var wire 1 n19 clk $end
$var wire 1 n20 w $end
$var wire 1 n21 y $end
$upscope $end
$scope module goodbranch_instance $end
$var wire 4 n22 num1 $end
$var wire 4 n23 num2 $end
$var wire 5 n24 out $end
$upscope $end
$var wire 3 n25 in_shiftandmult $end
$var wire 5 n26 result $end
$var wire 1 n27 rst $end
$var wire 1 n28 w_msb $end
$var wire 1 n29 y1 $end
$var wire 1 n30 y_msb $end
$var wire 1 n31 y_viv1 $end
$upscope $end
$var wire 1 n32 clk $end
$var wire 1 n33 first_cycle $end
$scope module goodbranch $end
$var wire 4 n34 num1 $end
$var wire 4 n35 num2 $end
$var wire 5 n36 out $end
$upscope $end
$var wire 4 n37 num1 $end
$var wire 4 n38 num2 $end
$var wire 5 n39 out $end
$var wire 5 n40 result $end
$var wire 1 n41 rst $end
$upscope $end
$enddefinitions $end
#0
1!
b00000000000000000000000000000000 t
b0 n0
b0 n1
b0 n2
b0 n3
b0 n4
b0001 n5
b0010 n6
b0001 n7
b0010 n8
b00011 n9
b0100 n10
b1000 n11
b01100 n12
b0100 n13
b1000 n14
b01100 n15
b0 n16
b100 n17
b1 n18
b0 n19
b0 n20
b1 n21
b0001 n22
b0010 n23
b00011 n24
b100 n25
b01100 n26
b0 n27
b0 n28
b1 n29
b1 n30
b1 n31
b0 n32
b0 n33
b0000 n34
b0000 n35
b00000 n36
b0000 n37
b0000 n38
b00000 n39
b01100 n40
b0 n41
#5
#10
1!
b00000000000000000000000000000001 t
b0 n0
b0 n1
b0 n2
b0 n3
b0 n4
b0001 n5
b0010 n6
b0001 n7
b0010 n8
b00011 n9
b0100 n10
b1000 n11
b01100 n12
b0100 n13
b1000 n14
b01100 n15
b0 n16
b100 n17
b1 n18
b0 n19
b0 n20
b1 n21
b0001 n22
b0010 n23
b00011 n24
b100 n25
b01100 n26
b0 n27
b0 n28
b1 n29
b1 n30
b1 n31
b0 n32
b0 n33
b0000 n34
b0000 n35
b00000 n36
b0000 n37
b0000 n38
b00000 n39
b01100 n40
b0 n41
#15
#20
1!
b00000000000000000000000000000010 t
b0 n0
b0 n1
b0 n2
b0 n3
b0 n4
b0001 n5
b0010 n6
b0001 n7
b0010 n8
b00011 n9
b0100 n10
b1000 n11
b01100 n12
b0100 n13
b1000 n14
b01100 n15
b0 n16
b100 n17
b1 n18
b0 n19
b0 n20
b1 n21
b0001 n22
b0010 n23
b00011 n24
b100 n25
b01100 n26
b0 n27
b0 n28
b1 n29
b1 n30
b1 n31
b0 n32
b0 n33
b0000 n34
b0000 n35
b00000 n36
b0000 n37
b0000 n38
b00000 n39
b01100 n40
b0 n41
#25
#30
1!
b00000000000000000000000000000011 t
b0 n0
b0 n1
b0 n2
b0 n3
b0 n4
b0001 n5
b0010 n6
b0001 n7
b0010 n8
b00011 n9
b0100 n10
b1000 n11
b01100 n12
b0100 n13
b1000 n14
b01100 n15
b0 n16
b100 n17
b1 n18
b0 n19
b0 n20
b1 n21
b0001 n22
b0010 n23
b00011 n24
b100 n25
b01100 n26
b0 n27
b0 n28
b1 n29
b1 n30
b1 n31
b0 n32
b0 n33
b0000 n34
b0000 n35
b00000 n36
b0000 n37
b0000 n38
b00000 n39
b01100 n40
b0 n41
#35
#40
1!
b00000000000000000000000000000100 t
b0 n0
b0 n1
b0 n2
b0 n3
b0 n4
b0001 n5
b0010 n6
b0001 n7
b0010 n8
b00011 n9
b0100 n10
b1000 n11
b01100 n12
b0100 n13
b1000 n14
b01100 n15
b0 n16
b100 n17
b1 n18
b0 n19
b0 n20
b1 n21
b0001 n22
b0010 n23
b00011 n24
b100 n25
b01100 n26
b0 n27
b0 n28
b1 n29
b1 n30
b1 n31
b0 n32
b0 n33
b0000 n34
b0000 n35
b00000 n36
b0000 n37
b0000 n38
b00000 n39
b01100 n40
b0 n41
#45
#50
1!
b00000000000000000000000000000101 t
b0 n0
b0 n1
b0 n2
b0 n3
b0 n4
b0001 n5
b0010 n6
b0001 n7
b0010 n8
b00011 n9
b0100 n10
b1000 n11
b01100 n12
b0100 n13
b1000 n14
b01100 n15
b0 n16
b100 n17
b1 n18
b0 n19
b0 n20
b1 n21
b0001 n22
b0010 n23
b00011 n24
b100 n25
b01100 n26
b0 n27
b0 n28
b1 n29
b1 n30
b1 n31
b0 n32
b0 n33
b0000 n34
b0000 n35
b00000 n36
b0000 n37
b0000 n38
b00000 n39
b01100 n40
b0 n41
#55
#60
1!
b00000000000000000000000000000110 t
b0 n0
b0 n1
b0 n2
b0 n3
b0 n4
b0001 n5
b0010 n6
b0001 n7
b0010 n8
b00011 n9
b0100 n10
b1000 n11
b01100 n12
b0100 n13
b1000 n14
b01100 n15
b0 n16
b100 n17
b1 n18
b0 n19
b0 n20
b1 n21
b0001 n22
b0010 n23
b00011 n24
b100 n25
b01100 n26
b0 n27
b0 n28
b1 n29
b1 n30
b1 n31
b0 n32
b0 n33
b0000 n34
b0000 n35
b00000 n36
b0000 n37
b0000 n38
b00000 n39
b01100 n40
b0 n41
#65
#70
1!
b00000000000000000000000000000111 t
b0 n0
b0 n1
b0 n2
b0 n3
b0 n4
b0001 n5
b0010 n6
b0001 n7
b0010 n8
b00011 n9
b0100 n10
b1000 n11
b01100 n12
b0100 n13
b1000 n14
b01100 n15
b0 n16
b100 n17
b1 n18
b0 n19
b0 n20
b1 n21
b0001 n22
b0010 n23
b00011 n24
b100 n25
b01100 n26
b0 n27
b0 n28
b1 n29
b1 n30
b1 n31
b0 n32
b0 n33
b0000 n34
b0000 n35
b00000 n36
b0000 n37
b0000 n38
b00000 n39
b01100 n40
b0 n41
#75
#80
1!
b00000000000000000000000000001000 t
b0 n0
b0 n1
b0 n2
b0 n3
b0 n4
b0001 n5
b0010 n6
b0001 n7
b0010 n8
b00011 n9
b0100 n10
b1000 n11
b01100 n12
b0100 n13
b1000 n14
b01100 n15
b0 n16
b100 n17
b1 n18
b0 n19
b0 n20
b1 n21
b0001 n22
b0010 n23
b00011 n24
b100 n25
b01100 n26
b0 n27
b0 n28
b1 n29
b1 n30
b1 n31
b0 n32
b0 n33
b0000 n34
b0000 n35
b00000 n36
b0000 n37
b0000 n38
b00000 n39
b01100 n40
b0 n41
#85
#90
1!
b00000000000000000000000000001001 t
b0 n0
b0 n1
b0 n2
b0 n3
b0 n4
b0001 n5
b0010 n6
b0001 n7
b0010 n8
b00011 n9
b0100 n10
b1000 n11
b01100 n12
b0100 n13
b1000 n14
b01100 n15
b0 n16
b100 n17
b1 n18
b0 n19
b0 n20
b1 n21
b0001 n22
b0010 n23
b00011 n24
b100 n25
b01100 n26
b0 n27
b0 n28
b1 n29
b1 n30
b1 n31
b0 n32
b0 n33
b0000 n34
b0000 n35
b00000 n36
b0000 n37
b0000 n38
b00000 n39
b01100 n40
b0 n41
#95
#100
1!
b00000000000000000000000000001010 t
b0 n0
b0 n1
b0 n2
b0 n3
b0 n4
b0001 n5
b0010 n6
b0001 n7
b0010 n8
b00011 n9
b0100 n10
b1000 n11
b01100 n12
b0100 n13
b1000 n14
b01100 n15
b0 n16
b100 n17
b1 n18
b0 n19
b0 n20
b1 n21
b0001 n22
b0010 n23
b00011 n24
b100 n25
b01100 n26
b0 n27
b0 n28
b1 n29
b1 n30
b1 n31
b0 n32
b0 n33
b0000 n34
b0000 n35
b00000 n36
b0000 n37
b0000 n38
b00000 n39
b01100 n40
b0 n41
#105
#110
1!
b00000000000000000000000000001011 t
b0 n0
b0 n1
b0 n2
b0 n3
b0 n4
b0001 n5
b0010 n6
b0001 n7
b0010 n8
b00011 n9
b0100 n10
b1000 n11
b01100 n12
b0100 n13
b1000 n14
b01100 n15
b0 n16
b100 n17
b1 n18
b0 n19
b0 n20
b1 n21
b0001 n22
b0010 n23
b00011 n24
b100 n25
b01100 n26
b0 n27
b0 n28
b1 n29
b1 n30
b1 n31
b0 n32
b0 n33
b0000 n34
b0000 n35
b00000 n36
b0000 n37
b0000 n38
b00000 n39
b01100 n40
b0 n41
#115
#120
1!
b00000000000000000000000000001100 t
b0 n0
b0 n1
b0 n2
b0 n3
b0 n4
b0001 n5
b0010 n6
b0001 n7
b0010 n8
b00011 n9
b0100 n10
b1000 n11
b01100 n12
b0100 n13
b1000 n14
b01100 n15
b0 n16
b100 n17
b1 n18
b0 n19
b0 n20
b1 n21
b0001 n22
b0010 n23
b00011 n24
b100 n25
b01100 n26
b0 n27
b0 n28
b1 n29
b1 n30
b1 n31
b0 n32
b0 n33
b0000 n34
b0000 n35
b00000 n36
b0000 n37
b0000 n38
b00000 n39
b01100 n40
b0 n41
#125
#130
1!
b00000000000000000000000000001101 t
b0 n0
b0 n1
b0 n2
b0 n3
b0 n4
b0001 n5
b0010 n6
b0001 n7
b0010 n8
b00011 n9
b0100 n10
b1000 n11
b01100 n12
b0100 n13
b1000 n14
b01100 n15
b0 n16
b100 n17
b1 n18
b0 n19
b0 n20
b1 n21
b0001 n22
b0010 n23
b00011 n24
b100 n25
b01100 n26
b0 n27
b0 n28
b1 n29
b1 n30
b1 n31
b0 n32
b0 n33
b0000 n34
b0000 n35
b00000 n36
b0000 n37
b0000 n38
b00000 n39
b01100 n40
b0 n41
#135
#140
1!
b00000000000000000000000000001110 t
b0 n0
b0 n1
b0 n2
b0 n3
b0 n4
b0001 n5
b0010 n6
b0001 n7
b0010 n8
b00011 n9
b0100 n10
b1000 n11
b01100 n12
b0100 n13
b1000 n14
b01100 n15
b0 n16
b100 n17
b1 n18
b0 n19
b0 n20
b1 n21
b0001 n22
b0010 n23
b00011 n24
b100 n25
b01100 n26
b0 n27
b0 n28
b1 n29
b1 n30
b1 n31
b0 n32
b0 n33
b0000 n34
b0000 n35
b00000 n36
b0000 n37
b0000 n38
b00000 n39
b01100 n40
b0 n41
#145
#150
1!
b00000000000000000000000000001111 t
b0 n0
b0 n1
b0 n2
b0 n3
b0 n4
b0001 n5
b0010 n6
b0001 n7
b0010 n8
b00011 n9
b0100 n10
b1000 n11
b01100 n12
b0100 n13
b1000 n14
b01100 n15
b0 n16
b100 n17
b1 n18
b0 n19
b0 n20
b1 n21
b0001 n22
b0010 n23
b00011 n24
b100 n25
b01100 n26
b0 n27
b0 n28
b1 n29
b1 n30
b1 n31
b0 n32
b0 n33
b0000 n34
b0000 n35
b00000 n36
b0000 n37
b0000 n38
b00000 n39
b01100 n40
b0 n41
#155
#160
1!
b00000000000000000000000000010000 t
b0 n0
b0 n1
b0 n2
b0 n3
b0 n4
b0001 n5
b0010 n6
b0001 n7
b0010 n8
b00011 n9
b0100 n10
b1000 n11
b01100 n12
b0100 n13
b1000 n14
b01100 n15
b0 n16
b100 n17
b1 n18
b0 n19
b0 n20
b1 n21
b0001 n22
b0010 n23
b00011 n24
b100 n25
b01100 n26
b0 n27
b0 n28
b1 n29
b1 n30
b1 n31
b0 n32
b0 n33
b0000 n34
b0000 n35
b00000 n36
b0000 n37
b0000 n38
b00000 n39
b01100 n40
b0 n41
#165
#170
1!
b00000000000000000000000000010001 t
b0 n0
b0 n1
b0 n2
b0 n3
b0 n4
b0001 n5
b0010 n6
b0001 n7
b0010 n8
b00011 n9
b0100 n10
b1000 n11
b01100 n12
b0100 n13
b1000 n14
b01100 n15
b0 n16
b100 n17
b1 n18
b0 n19
b0 n20
b1 n21
b0001 n22
b0010 n23
b00011 n24
b100 n25
b01100 n26
b0 n27
b0 n28
b1 n29
b1 n30
b1 n31
b0 n32
b0 n33
b0000 n34
b0000 n35
b00000 n36
b0000 n37
b0000 n38
b00000 n39
b01100 n40
b0 n41
#175
#180
1!
b00000000000000000000000000010010 t
b0 n0
b0 n1
b0 n2
b0 n3
b0 n4
b0001 n5
b0010 n6
b0001 n7
b0010 n8
b00011 n9
b0100 n10
b1000 n11
b01100 n12
b0100 n13
b1000 n14
b01100 n15
b0 n16
b100 n17
b1 n18
b0 n19
b0 n20
b1 n21
b0001 n22
b0010 n23
b00011 n24
b100 n25
b01100 n26
b0 n27
b0 n28
b1 n29
b1 n30
b1 n31
b0 n32
b0 n33
b0000 n34
b0000 n35
b00000 n36
b0000 n37
b0000 n38
b00000 n39
b01100 n40
b0 n41
#185
#190
1!
b00000000000000000000000000010011 t
b0 n0
b0 n1
b0 n2
b0 n3
b0 n4
b0001 n5
b0010 n6
b0001 n7
b0010 n8
b00011 n9
b0100 n10
b1000 n11
b01100 n12
b0100 n13
b1000 n14
b01100 n15
b0 n16
b100 n17
b1 n18
b0 n19
b0 n20
b1 n21
b0001 n22
b0010 n23
b00011 n24
b100 n25
b01100 n26
b0 n27
b0 n28
b1 n29
b1 n30
b1 n31
b0 n32
b0 n33
b0001 n34
b0010 n35
b00011 n36
b0001 n37
b0010 n38
b00011 n39
b01100 n40
b0 n41
#195
#200
1!
b00000000000000000000000000010100 t
b0 n0
b0 n1
b0 n2
b0 n3
b0 n4
b0001 n5
b0010 n6
b0001 n7
b0010 n8
b00011 n9
b0100 n10
b1000 n11
b01100 n12
b0100 n13
b1000 n14
b01100 n15
b1 n16
b100 n17
b1 n18
b1 n19
b0 n20
b0 n21
b0001 n22
b0010 n23
b00011 n24
b100 n25
b00011 n26
b0 n27
b0 n28
b1 n29
b0 n30
b1 n31
b1 n32
b0 n33
b0000 n34
b0000 n35
b00000 n36
b0000 n37
b0000 n38
b00000 n39
b00011 n40
b0 n41
#205
#210
1!
b00000000000000000000000000010101 t
