proofcomb/engine_0/trace_induct.vcd
$version Generated by Yosys-SMTBMC $end
$timescale 1ns $end
$var integer 32 t smt_step $end
$var event 1 ! smt_clock $end
$scope module proofcombgood $end
$scope module _witness_ $end
$var wire 1 n0 anyinit_auto_clk2fflogic_cc_95_sample_data_82 $end
$var wire 1 n1 anyseq_auto_setundef_cc_533_execute_113 $end
$var wire 1 n2 anyseq_auto_setundef_cc_533_execute_115 $end
$var wire 1 n3 anyseq_auto_setundef_cc_533_execute_117 $end
$var wire 1 n4 anyseq_auto_setundef_cc_533_execute_119 $end
$upscope $end
$var wire 4 n5 a_num1 $end
$var wire 4 n6 a_num2 $end
$scope module bug_eval $end
$var wire 4 n7 a_num1 $end
$var wire 4 n8 a_num2 $end
$var wire 5 n9 a_out $end
$var wire 4 n10 b_num1 $end
$var wire 4 n11 b_num2 $end
$var wire 5 n12 b_out $end
$scope module badbranch_instance $end
$var wire 4 n13 num1 $end
$var wire 4 n14 num2 $end
$var wire 5 n15 out $end
$upscope $end
$var wire 1 n16 clk $end
$scope module eval_top_1 $end
$var wire 3 n17 w $end
$var wire 1 n18 y $end
$upscope $end
$scope module eval_topmsb_1 $end
$var wire 1 n19 clk $end
$var wire 1 n20 w $end
$var wire 1 n21 y $end
$upscope $end
$scope module goodbranch_instance $end
$var wire 4 n22 num1 $end
$var wire 4 n23 num2 $end
$var wire 5 n24 out $end
$upscope $end
$var wire 3 n25 in_shiftandmult $end
$var wire 5 n26 result $end
$var wire 1 n27 rst $end
$var wire 1 n28 w_msb $end
$var wire 1 n29 y1 $end
$var wire 1 n30 y_msb $end
$var wire 1 n31 y_viv1 $end
$upscope $end
$var wire 1 n32 clk $end
$var wire 1 n33 first_cycle $end
$scope module goodbranch $end
$var wire 4 n34 num1 $end
$var wire 4 n35 num2 $end
$var wire 5 n36 out $end
$upscope $end
$var wire 4 n37 num1 $end
$var wire 4 n38 num2 $end
$var wire 5 n39 out $end
$var wire 5 n40 result $end
$var wire 1 n41 rst $end
$var wire 1 n42 w_msb $end
$var wire 1 n43 y1 $end
$var wire 1 n44 y_msb $end
$var wire 1 n45 y_viv1 $end
$upscope $end
$enddefinitions $end
#0
1!
b00000000000000000000000000000000 t
b0 n0
b0 n1
b0 n2
b0 n3
b0 n4
b0000 n5
b0000 n6
b0000 n7
b0000 n8
b00000 n9
b0000 n10
b0000 n11
b00000 n12
b0000 n13
b0000 n14
b00000 n15
b0 n16
b100 n17
b1 n18
b0 n19
b0 n20
b1 n21
b0000 n22
b0000 n23
b00000 n24
b100 n25
b00000 n26
b0 n27
b0 n28
b1 n29
b1 n30
b1 n31
b0 n32
b0 n33
b1000 n34
b1000 n35
b10000 n36
b1000 n37
b1000 n38
b10000 n39
b00000 n40
b0 n41
b0 n42
b0 n43
b0 n44
b0 n45
#5
#10
1!
b00000000000000000000000000000001 t
b0 n0
b0 n1
b0 n2
b0 n3
b0 n4
b0000 n5
b0000 n6
b0000 n7
b0000 n8
b00000 n9
b0000 n10
b0000 n11
b00000 n12
b0000 n13
b0000 n14
b00000 n15
b0 n16
b100 n17
b1 n18
b0 n19
b0 n20
b1 n21
b0000 n22
b0000 n23
b00000 n24
b100 n25
b00000 n26
b0 n27
b0 n28
b1 n29
b1 n30
b1 n31
b0 n32
b0 n33
b1000 n34
b1000 n35
b10000 n36
b1000 n37
b1000 n38
b10000 n39
b00000 n40
b0 n41
b0 n42
b0 n43
b0 n44
b0 n45
#15
#20
1!
b00000000000000000000000000000010 t
b0 n0
b0 n1
b0 n2
b0 n3
b0 n4
b0000 n5
b0000 n6
b0000 n7
b0000 n8
b00000 n9
b0000 n10
b0000 n11
b00000 n12
b0000 n13
b0000 n14
b00000 n15
b0 n16
b100 n17
b1 n18
b0 n19
b0 n20
b1 n21
b0000 n22
b0000 n23
b00000 n24
b100 n25
b00000 n26
b0 n27
b0 n28
b1 n29
b1 n30
b1 n31
b0 n32
b0 n33
b1000 n34
b1000 n35
b10000 n36
b1000 n37
b1000 n38
b10000 n39
b00000 n40
b0 n41
b0 n42
b0 n43
b0 n44
b0 n45
#25
#30
1!
b00000000000000000000000000000011 t
b0 n0
b0 n1
b0 n2
b0 n3
b0 n4
b0000 n5
b0000 n6
b0000 n7
b0000 n8
b00000 n9
b0000 n10
b0000 n11
b00000 n12
b0000 n13
b0000 n14
b00000 n15
b0 n16
b100 n17
b1 n18
b0 n19
b0 n20
b1 n21
b0000 n22
b0000 n23
b00000 n24
b100 n25
b00000 n26
b0 n27
b0 n28
b1 n29
b1 n30
b1 n31
b0 n32
b0 n33
b1000 n34
b1000 n35
b10000 n36
b1000 n37
b1000 n38
b10000 n39
b00000 n40
b0 n41
b0 n42
b0 n43
b0 n44
b0 n45
#35
#40
1!
b00000000000000000000000000000100 t
b0 n0
b0 n1
b0 n2
b0 n3
b0 n4
b0000 n5
b0000 n6
b0000 n7
b0000 n8
b00000 n9
b0000 n10
b0000 n11
b00000 n12
b0000 n13
b0000 n14
b00000 n15
b0 n16
b100 n17
b1 n18
b0 n19
b0 n20
b1 n21
b0000 n22
b0000 n23
b00000 n24
b100 n25
b00000 n26
b0 n27
b0 n28
b1 n29
b1 n30
b1 n31
b0 n32
b0 n33
b1000 n34
b1000 n35
b10000 n36
b1000 n37
b1000 n38
b10000 n39
b00000 n40
b0 n41
b0 n42
b0 n43
b0 n44
b0 n45
#45
#50
1!
b00000000000000000000000000000101 t
b0 n0
b0 n1
b0 n2
b0 n3
b0 n4
b0000 n5
b0000 n6
b0000 n7
b0000 n8
b00000 n9
b0000 n10
b0000 n11
b00000 n12
b0000 n13
b0000 n14
b00000 n15
b0 n16
b100 n17
b1 n18
b0 n19
b0 n20
b1 n21
b0000 n22
b0000 n23
b00000 n24
b100 n25
b00000 n26
b0 n27
b0 n28
b1 n29
b1 n30
b1 n31
b0 n32
b0 n33
b1000 n34
b1000 n35
b10000 n36
b1000 n37
b1000 n38
b10000 n39
b00000 n40
b0 n41
b0 n42
b0 n43
b0 n44
b0 n45
#55
#60
1!
b00000000000000000000000000000110 t
b0 n0
b0 n1
b0 n2
b0 n3
b0 n4
b0000 n5
b0000 n6
b0000 n7
b0000 n8
b00000 n9
b0000 n10
b0000 n11
b00000 n12
b0000 n13
b0000 n14
b00000 n15
b0 n16
b100 n17
b1 n18
b0 n19
b0 n20
b1 n21
b0000 n22
b0000 n23
b00000 n24
b100 n25
b00000 n26
b0 n27
b0 n28
b1 n29
b1 n30
b1 n31
b0 n32
b0 n33
b1000 n34
b1000 n35
b10000 n36
b1000 n37
b1000 n38
b10000 n39
b00000 n40
b0 n41
b0 n42
b0 n43
b0 n44
b0 n45
#65
#70
1!
b00000000000000000000000000000111 t
b0 n0
b0 n1
b0 n2
b0 n3
b0 n4
b0000 n5
b0000 n6
b0000 n7
b0000 n8
b00000 n9
b0000 n10
b0000 n11
b00000 n12
b0000 n13
b0000 n14
b00000 n15
b0 n16
b100 n17
b1 n18
b0 n19
b0 n20
b1 n21
b0000 n22
b0000 n23
b00000 n24
b100 n25
b00000 n26
b0 n27
b0 n28
b1 n29
b1 n30
b1 n31
b0 n32
b0 n33
b1000 n34
b1000 n35
b10000 n36
b1000 n37
b1000 n38
b10000 n39
b00000 n40
b0 n41
b0 n42
b0 n43
b0 n44
b0 n45
#75
#80
1!
b00000000000000000000000000001000 t
b0 n0
b0 n1
b0 n2
b0 n3
b0 n4
b0000 n5
b0000 n6
b0000 n7
b0000 n8
b00000 n9
b0000 n10
b0000 n11
b00000 n12
b0000 n13
b0000 n14
b00000 n15
b0 n16
b100 n17
b1 n18
b0 n19
b0 n20
b1 n21
b0000 n22
b0000 n23
b00000 n24
b100 n25
b00000 n26
b0 n27
b0 n28
b1 n29
b1 n30
b1 n31
b0 n32
b0 n33
b1000 n34
b1000 n35
b10000 n36
b1000 n37
b1000 n38
b10000 n39
b00000 n40
b0 n41
b0 n42
b0 n43
b0 n44
b0 n45
#85
#90
1!
b00000000000000000000000000001001 t
b0 n0
b0 n1
b0 n2
b0 n3
b0 n4
b0000 n5
b0000 n6
b0000 n7
b0000 n8
b00000 n9
b0000 n10
b0000 n11
b00000 n12
b0000 n13
b0000 n14
b00000 n15
b0 n16
b100 n17
b1 n18
b0 n19
b0 n20
b1 n21
b0000 n22
b0000 n23
b00000 n24
b100 n25
b00000 n26
b0 n27
b0 n28
b1 n29
b1 n30
b1 n31
b0 n32
b0 n33
b1000 n34
b1000 n35
b10000 n36
b1000 n37
b1000 n38
b10000 n39
b00000 n40
b0 n41
b0 n42
b0 n43
b0 n44
b0 n45
#95
#100
1!
b00000000000000000000000000001010 t
b0 n0
b0 n1
b0 n2
b0 n3
b0 n4
b0000 n5
b0000 n6
b0000 n7
b0000 n8
b00000 n9
b0000 n10
b0000 n11
b00000 n12
b0000 n13
b0000 n14
b00000 n15
b0 n16
b100 n17
b1 n18
b0 n19
b0 n20
b1 n21
b0000 n22
b0000 n23
b00000 n24
b100 n25
b00000 n26
b0 n27
b0 n28
b1 n29
b1 n30
b1 n31
b0 n32
b0 n33
b1000 n34
b1000 n35
b10000 n36
b1000 n37
b1000 n38
b10000 n39
b00000 n40
b0 n41
b0 n42
b0 n43
b0 n44
b0 n45
#105
#110
1!
b00000000000000000000000000001011 t
b0 n0
b0 n1
b0 n2
b0 n3
b0 n4
b0000 n5
b0000 n6
b0000 n7
b0000 n8
b00000 n9
b0000 n10
b0000 n11
b00000 n12
b0000 n13
b0000 n14
b00000 n15
b0 n16
b100 n17
b1 n18
b0 n19
b0 n20
b1 n21
b0000 n22
b0000 n23
b00000 n24
b100 n25
b00000 n26
b0 n27
b0 n28
b1 n29
b1 n30
b1 n31
b0 n32
b0 n33
b1000 n34
b1000 n35
b10000 n36
b1000 n37
b1000 n38
b10000 n39
b00000 n40
b0 n41
b0 n42
b0 n43
b0 n44
b0 n45
#115
#120
1!
b00000000000000000000000000001100 t
b0 n0
b0 n1
b0 n2
b0 n3
b0 n4
b0000 n5
b0000 n6
b0000 n7
b0000 n8
b00000 n9
b0000 n10
b0000 n11
b00000 n12
b0000 n13
b0000 n14
b00000 n15
b0 n16
b100 n17
b1 n18
b0 n19
b0 n20
b1 n21
b0000 n22
b0000 n23
b00000 n24
b100 n25
b00000 n26
b0 n27
b0 n28
b1 n29
b1 n30
b1 n31
b0 n32
b0 n33
b1000 n34
b1000 n35
b10000 n36
b1000 n37
b1000 n38
b10000 n39
b00000 n40
b0 n41
b0 n42
b0 n43
b0 n44
b0 n45
#125
#130
1!
b00000000000000000000000000001101 t
b0 n0
b0 n1
b0 n2
b0 n3
b0 n4
b0000 n5
b0000 n6
b0000 n7
b0000 n8
b00000 n9
b0000 n10
b0000 n11
b00000 n12
b0000 n13
b0000 n14
b00000 n15
b0 n16
b100 n17
b1 n18
b0 n19
b0 n20
b1 n21
b0000 n22
b0000 n23
b00000 n24
b100 n25
b00000 n26
b0 n27
b0 n28
b1 n29
b1 n30
b1 n31
b0 n32
b0 n33
b1000 n34
b1000 n35
b10000 n36
b1000 n37
b1000 n38
b10000 n39
b00000 n40
b0 n41
b0 n42
b0 n43
b0 n44
b0 n45
#135
#140
1!
b00000000000000000000000000001110 t
b0 n0
b0 n1
b0 n2
b0 n3
b0 n4
b0000 n5
b0000 n6
b0000 n7
b0000 n8
b00000 n9
b0000 n10
b0000 n11
b00000 n12
b0000 n13
b0000 n14
b00000 n15
b0 n16
b100 n17
b1 n18
b0 n19
b0 n20
b1 n21
b0000 n22
b0000 n23
b00000 n24
b100 n25
b00000 n26
b0 n27
b0 n28
b1 n29
b1 n30
b1 n31
b0 n32
b0 n33
b1000 n34
b1000 n35
b10000 n36
b1000 n37
b1000 n38
b10000 n39
b00000 n40
b0 n41
b0 n42
b0 n43
b0 n44
b0 n45
#145
#150
1!
b00000000000000000000000000001111 t
b0 n0
b0 n1
b0 n2
b0 n3
b0 n4
b0000 n5
b0000 n6
b0000 n7
b0000 n8
b00000 n9
b0000 n10
b0000 n11
b00000 n12
b0000 n13
b0000 n14
b00000 n15
b0 n16
b100 n17
b1 n18
b0 n19
b0 n20
b1 n21
b0000 n22
b0000 n23
b00000 n24
b100 n25
b00000 n26
b0 n27
b0 n28
b1 n29
b1 n30
b1 n31
b0 n32
b0 n33
b1000 n34
b1000 n35
b10000 n36
b1000 n37
b1000 n38
b10000 n39
b00000 n40
b0 n41
b0 n42
b0 n43
b0 n44
b0 n45
#155
#160
1!
b00000000000000000000000000010000 t
b0 n0
b0 n1
b0 n2
b0 n3
b0 n4
b0000 n5
b0000 n6
b0000 n7
b0000 n8
b00000 n9
b0000 n10
b0000 n11
b00000 n12
b0000 n13
b0000 n14
b00000 n15
b0 n16
b100 n17
b1 n18
b0 n19
b0 n20
b1 n21
b0000 n22
b0000 n23
b00000 n24
b100 n25
b00000 n26
b0 n27
b0 n28
b1 n29
b1 n30
b1 n31
b0 n32
b0 n33
b1000 n34
b1000 n35
b10000 n36
b1000 n37
b1000 n38
b10000 n39
b00000 n40
b0 n41
b0 n42
b0 n43
b0 n44
b0 n45
#165
#170
1!
b00000000000000000000000000010001 t
b0 n0
b0 n1
b0 n2
b0 n3
b0 n4
b0000 n5
b0000 n6
b0000 n7
b0000 n8
b00000 n9
b0000 n10
b0000 n11
b00000 n12
b0000 n13
b0000 n14
b00000 n15
b0 n16
b100 n17
b1 n18
b0 n19
b0 n20
b1 n21
b0000 n22
b0000 n23
b00000 n24
b100 n25
b00000 n26
b0 n27
b0 n28
b1 n29
b1 n30
b1 n31
b0 n32
b0 n33
b1000 n34
b1000 n35
b10000 n36
b1000 n37
b1000 n38
b10000 n39
b00000 n40
b0 n41
b0 n42
b0 n43
b0 n44
b0 n45
#175
#180
1!
b00000000000000000000000000010010 t
b0 n0
b0 n1
b0 n2
b0 n3
b0 n4
b0000 n5
b0000 n6
b0000 n7
b0000 n8
b00000 n9
b0000 n10
b0000 n11
b00000 n12
b0000 n13
b0000 n14
b00000 n15
b0 n16
b100 n17
b1 n18
b0 n19
b0 n20
b1 n21
b0000 n22
b0000 n23
b00000 n24
b100 n25
b00000 n26
b0 n27
b0 n28
b1 n29
b1 n30
b1 n31
b0 n32
b0 n33
b1000 n34
b1000 n35
b10000 n36
b1000 n37
b1000 n38
b10000 n39
b00000 n40
b0 n41
b0 n42
b0 n43
b0 n44
b0 n45
#185
#190
1!
b00000000000000000000000000010011 t
b0 n0
b0 n1
b0 n2
b0 n3
b0 n4
b1001 n5
b0111 n6
b1001 n7
b0111 n8
b10000 n9
b1100 n10
b1100 n11
b11000 n12
b1100 n13
b1100 n14
b11000 n15
b0 n16
b100 n17
b1 n18
b0 n19
b0 n20
b1 n21
b1001 n22
b0111 n23
b10000 n24
b100 n25
b11000 n26
b0 n27
b0 n28
b1 n29
b1 n30
b1 n31
b0 n32
b0 n33
b1001 n34
b0111 n35
b10000 n36
b1001 n37
b0111 n38
b10000 n39
b11000 n40
b0 n41
b0 n42
b1 n43
b0 n44
b1 n45
#195
#200
1!
b00000000000000000000000000010100 t
b0 n0
b0 n1
b0 n2
b0 n3
b0 n4
b0000 n5
b0000 n6
b0000 n7
b0000 n8
b00000 n9
b0000 n10
b0000 n11
b00000 n12
b0000 n13
b0000 n14
b00000 n15
b1 n16
b100 n17
b1 n18
b1 n19
b0 n20
b0 n21
b0000 n22
b0000 n23
b00000 n24
b100 n25
b00000 n26
b0 n27
b0 n28
b1 n29
b0 n30
b1 n31
b1 n32
b0 n33
b0000 n34
b0000 n35
b00000 n36
b0000 n37
b0000 n38
b00000 n39
b00000 n40
b0 n41
b0 n42
b0 n43
b0 n44
b0 n45
#205
#210
1!
b00000000000000000000000000010101 t
